log2c=5 log2g=-7 rate=96.5625
log2c=-1 log2g=-7 rate=55.3125
log2c=5 log2g=-1 rate=98.5938
log2c=-1 log2g=-1 rate=96.5625
log2c=11 log2g=-7 rate=98.4375
log2c=11 log2g=-1 rate=98.4375
log2c=5 log2g=-13 rate=54.8438
log2c=-1 log2g=-13 rate=54.8438
log2c=11 log2g=-13 rate=96.7188
log2c=-3 log2g=-7 rate=55.3125
log2c=-3 log2g=-1 rate=97.5
log2c=-3 log2g=-13 rate=54.8438
log2c=5 log2g=1 rate=98.125
log2c=-1 log2g=1 rate=96.4062
log2c=11 log2g=1 rate=98.125
log2c=-3 log2g=1 rate=95.7812
log2c=9 log2g=-7 rate=97.8125
log2c=9 log2g=-1 rate=98.4375
log2c=9 log2g=-13 rate=97.0312
log2c=9 log2g=1 rate=98.125
log2c=5 log2g=-11 rate=65.625
log2c=-1 log2g=-11 rate=54.8438
log2c=11 log2g=-11 rate=97.0312
log2c=-3 log2g=-11 rate=54.8438
log2c=9 log2g=-11 rate=96.7188
log2c=3 log2g=-7 rate=97.0312
log2c=3 log2g=-1 rate=98.125
log2c=3 log2g=-13 rate=54.8438
log2c=3 log2g=1 rate=98.4375
log2c=3 log2g=-11 rate=54.8438
log2c=5 log2g=-5 rate=97.0312
log2c=-1 log2g=-5 rate=65.9375
log2c=11 log2g=-5 rate=98.9062
log2c=-3 log2g=-5 rate=56.0938
log2c=9 log2g=-5 rate=98.4375
log2c=3 log2g=-5 rate=96.5625
log2c=15 log2g=-7 rate=98.75
log2c=15 log2g=-1 rate=98.4375
log2c=15 log2g=-13 rate=97.6562
log2c=15 log2g=1 rate=98.125
log2c=15 log2g=-11 rate=98.5938
log2c=15 log2g=-5 rate=98.4375
log2c=5 log2g=-15 rate=54.8438
log2c=-1 log2g=-15 rate=54.8438
log2c=11 log2g=-15 rate=97.0312
log2c=-3 log2g=-15 rate=54.8438
log2c=9 log2g=-15 rate=65.625
log2c=3 log2g=-15 rate=54.8438
log2c=15 log2g=-15 rate=97.0312
log2c=-5 log2g=-7 rate=55.3125
log2c=-5 log2g=-1 rate=74.5312
log2c=-5 log2g=-13 rate=54.8438
log2c=-5 log2g=1 rate=97.0312
log2c=-5 log2g=-11 rate=54.8438
log2c=-5 log2g=-5 rate=56.0938
log2c=-5 log2g=-15 rate=54.8438
log2c=5 log2g=3 rate=97.6562
log2c=-1 log2g=3 rate=97.5
log2c=11 log2g=3 rate=97.6562
log2c=-3 log2g=3 rate=95.1562
log2c=9 log2g=3 rate=97.6562
log2c=3 log2g=3 rate=97.6562
log2c=15 log2g=3 rate=97.6562
log2c=-5 log2g=3 rate=93.125
log2c=7 log2g=-7 rate=97.0312
log2c=7 log2g=-1 rate=98.5938
log2c=7 log2g=-13 rate=65.625
log2c=7 log2g=1 rate=98.125
log2c=7 log2g=-11 rate=97.0312
log2c=7 log2g=-5 rate=97.6562
log2c=7 log2g=-15 rate=54.8438
log2c=7 log2g=3 rate=97.6562
log2c=5 log2g=-9 rate=97.0312
log2c=-1 log2g=-9 rate=54.8438
log2c=11 log2g=-9 rate=97.6562
log2c=-3 log2g=-9 rate=54.8438
log2c=9 log2g=-9 rate=97.0312
log2c=3 log2g=-9 rate=65.625
log2c=15 log2g=-9 rate=98.4375
log2c=-5 log2g=-9 rate=54.8438
log2c=7 log2g=-9 rate=96.7188
log2c=1 log2g=-7 rate=65.625
log2c=1 log2g=-1 rate=97.0312
log2c=1 log2g=-13 rate=54.8438
log2c=1 log2g=1 rate=97.8125
log2c=1 log2g=-11 rate=54.8438
log2c=1 log2g=-5 rate=97.0312
log2c=1 log2g=-15 rate=54.8438
log2c=1 log2g=3 rate=97.5
log2c=1 log2g=-9 rate=54.8438
log2c=5 log2g=-3 rate=97.9688
log2c=-1 log2g=-3 rate=96.875
log2c=11 log2g=-3 rate=98.5938
log2c=-3 log2g=-3 rate=66.7188
log2c=9 log2g=-3 rate=98.5938
log2c=3 log2g=-3 rate=97.5
log2c=15 log2g=-3 rate=98.75
log2c=-5 log2g=-3 rate=61.4062
log2c=7 log2g=-3 rate=98.5938
log2c=1 log2g=-3 rate=96.875
log2c=13 log2g=-7 rate=98.9062
log2c=13 log2g=-1 rate=98.4375
log2c=13 log2g=-13 rate=97.0312
log2c=13 log2g=1 rate=98.125
log2c=13 log2g=-11 rate=97.6562
log2c=13 log2g=-5 rate=98.75
log2c=13 log2g=-15 rate=96.7188
log2c=13 log2g=3 rate=97.6562
log2c=13 log2g=-9 rate=98.5938
log2c=13 log2g=-3 rate=98.75
