\relax 
\@writefile{lot}{\contentsline {table}{\numberline {1}{\ignorespaces Mean-Squared-Error of ML Regression on train and test data sets}}{2}}
\newlabel{table:MSE}{{1}{2}}
\@writefile{lot}{\contentsline {table}{\numberline {2}{\ignorespaces Resulting weights table from performing ML Regression on the train set.}}{2}}
\newlabel{table:weights}{{2}{2}}
\@writefile{lot}{\contentsline {table}{\numberline {3}{\ignorespaces Mean-Squared-Error results on both train and test sets depending on the number of epochs we trained the neural network.}}{3}}
\newlabel{table:Q21}{{3}{3}}
\@writefile{lot}{\contentsline {table}{\numberline {4}{\ignorespaces Mean-Squared-Error results on both train and test sets depending on the number of epochs we trained the neural network.}}{3}}
\newlabel{table:Q22}{{4}{3}}
\@writefile{lot}{\contentsline {table}{\numberline {5}{\ignorespaces Accuracy, sensitivity and specificity results on both training and test set with SVM and LDA}}{4}}
\newlabel{table:Q3}{{5}{4}}
\@writefile{lof}{\contentsline {figure}{\numberline {1}{\ignorespaces Plot of eigenspectrum}}{5}}
\newlabel{figure:Q41}{{1}{5}}
\@writefile{lof}{\contentsline {figure}{\numberline {2}{\ignorespaces Data projected on first two principal dimensions}}{6}}
\newlabel{figure:Q42}{{2}{6}}
\@writefile{lof}{\contentsline {figure}{\numberline {3}{\ignorespaces Data projected on first two principal dimensions along with the centroids that were found}}{7}}
\newlabel{figure:Q5}{{3}{7}}
\@writefile{lot}{\contentsline {table}{\numberline {6}{\ignorespaces Classification Error on both training and test set with LDA and KNN}}{8}}
\newlabel{table:Q6}{{6}{8}}
